3 семестр/Архитектура вычислительных машин и систем/Prac7/simulation/qsim/Prac7.msim.vcd
$comment
	File created using the following command:
		vcd file Prac7.msim.vcd -direction
$end
$date
	Sun Oct 20 15:27:22 2024
$end
$version
	ModelSim Version 10.1d
$end
$timescale
	1ps
$end
$scope module Prac7_vlg_vec_tst $end
$var reg 1 ! a $end
$var reg 1 " b $end
$var reg 1 # clock $end
$var wire 1 $ q [3] $end
$var wire 1 % q [2] $end
$var wire 1 & q [1] $end
$var wire 1 ' q [0] $end
$var wire 1 ( sampler $end
$scope module i1 $end
$var wire 1 ) gnd $end
$var wire 1 * vcc $end
$var wire 1 + unknown $end
$var tri1 1 , devclrn $end
$var tri1 1 - devpor $end
$var tri1 1 . devoe $end
$var wire 1 / q[0]~output_o $end
$var wire 1 0 q[1]~output_o $end
$var wire 1 1 q[2]~output_o $end
$var wire 1 2 q[3]~output_o $end
$var wire 1 3 clock~input_o $end
$var wire 1 4 clock~inputclkctrl_outclk $end
$var wire 1 5 b~input_o $end
$var wire 1 6 a~input_o $end
$var wire 1 7 newq3~0_combout $end
$var wire 1 8 newq3~1_combout $end
$var wire 1 9 tr3~q $end
$var wire 1 : newq2~0_combout $end
$var wire 1 ; newq1~1_combout $end
$var wire 1 < newq1~2_combout $end
$var wire 1 = newq2~1_combout $end
$var wire 1 > tr2~q $end
$var wire 1 ? r5~0_combout $end
$var wire 1 @ newq1~0_combout $end
$var wire 1 A newq1~3_combout $end
$var wire 1 B tr1~q $end
$var wire 1 C newq0~0_combout $end
$var wire 1 D newq0~1_combout $end
$var wire 1 E tr0~q $end
$upscope $end
$upscope $end
$enddefinitions $end
#0
$dumpvars
0!
0"
0#
0'
0&
0%
0$
x(
0)
1*
x+
1,
1-
1.
0/
00
01
02
03
04
05
06
17
18
09
0:
1;
1<
0=
0>
0?
1@
1A
0B
0C
1D
0E
$end
#5000
1#
13
14
0(
1E
1B
19
1C
0@
1:
1/
10
12
1'
1&
1$
0D
0A
1=
#10000
0#
03
04
1(
#15000
1#
13
14
0(
0E
0B
1>
1D
1@
07
0/
00
11
0'
0&
1%
1A
08
#20000
0#
03
04
1(
#25000
1#
13
14
0(
1E
1B
09
0C
1/
10
02
1'
1&
0$
0D
#30000
0#
03
04
1(
#35000
1#
13
14
0(
0E
0@
0/
0'
0A
#40000
0#
03
04
1(
#45000
1#
13
14
0(
0B
1D
1C
17
00
0&
18
#50000
0#
03
04
1(
#55000
1#
13
14
0(
1E
19
0D
0C
1@
0:
1/
12
1'
1$
1A
0=
#60000
0#
03
04
1(
#65000
1#
13
14
0(
0E
1B
0>
1C
0@
07
0/
10
01
0'
1&
0%
1D
0A
08
#70000
0#
03
04
1(
#75000
1#
13
14
0(
1E
0B
09
17
1/
00
02
1'
0&
0$
18
#80000
0#
03
04
1(
#85000
1#
13
14
0(
19
0D
1@
07
12
1$
1A
08
#90000
0#
03
04
1(
#95000
1"
1#
15
13
14
0(
0E
1B
09
0@
17
0;
0/
10
02
0'
1&
0$
0A
18
0<
1A
1=
#100000
0#
03
04
1(
#105000
1#
13
14
0(
1>
19
0C
1<
1:
1D
1;
11
12
1%
1$
0D
0A
#110000
0#
03
04
1(
#115000
1#
13
14
0(
0B
1C
1@
07
00
0&
1D
1A
08
#120000
0#
03
04
1(
#125000
1#
13
14
0(
1E
1B
09
0C
0;
1/
10
02
1'
1&
0$
0D
#130000
0#
03
04
1(
#135000
1#
13
14
0(
0E
0@
0/
0'
0A
#140000
0#
03
04
1(
#145000
1#
13
14
0(
0B
1D
1C
17
00
0&
18
#150000
0#
03
04
1(
#155000
1#
13
14
0(
1E
19
0D
1@
1?
0:
1;
1/
12
1'
1$
1A
0=
#160000
0#
03
04
1(
#165000
1#
13
14
0(
0E
1B
0>
1D
0@
0?
07
0/
10
01
0'
1&
0%
0A
08
#170000
0#
03
04
1(
#175000
1#
13
14
0(
1E
0B
09
17
0;
1/
00
02
1'
0&
0$
18
#180000
0#
03
04
1(
#185000
1#
13
14
0(
19
0D
1@
1;
07
12
1$
1A
08
#190000
1!
0"
0#
16
05
03
04
1(
0;
#195000
1#
13
14
0(
0E
1B
09
0@
0<
17
18
1;
0/
10
02
0'
1&
0$
1=
1<
0A
0=
#200000
0#
03
04
1(
#205000
1#
13
14
0(
0B
19
1D
0C
1:
0;
00
12
0&
1$
0D
1=
#210000
0#
03
04
1(
#215000
1#
13
14
0(
1>
1C
1@
07
11
1%
1D
1A
08
#220000
0#
03
04
1(
#225000
1#
13
14
0(
1E
1B
09
0C
1;
1/
10
02
1'
1&
0$
0D
#230000
0#
03
04
1(
#235000
1#
13
14
0(
0E
0@
0/
0'
0A
#240000
0#
03
04
1(
#245000
1#
13
14
0(
0B
1D
1C
17
00
0&
18
#250000
0#
03
04
1(
#255000
1#
13
14
0(
1E
19
0D
0C
1@
0:
0;
1/
12
1'
1$
1A
0=
#260000
0#
03
04
1(
#265000
1#
13
14
0(
0E
1B
0>
1C
0@
0<
07
0/
10
01
0'
1&
0%
1D
1=
#270000
0#
03
04
1(
#275000
1#
13
14
0(
1E
1>
0D
0C
1<
1:
08
1/
11
1'
1%
1D
0A
#280000
0#
03
04
1(
#285000
1"
1#
15
13
14
0(
0B
09
0D
1C
1?
0:
00
02
0&
0$
1D
1A
0=
#290000
0#
03
04
1(
#295000
1#
13
14
0(
1B
0>
1@
0?
18
17
10
01
1&
0%
#300000
0#
03
04
1(
#305000
1#
13
14
0(
19
0D
0@
1:
12
1$
0A
1=
#310000
0#
03
04
1(
#315000
1#
13
14
0(
0E
0B
1>
1D
1@
07
0/
00
11
0'
0&
1%
1A
08
#320000
0#
03
04
1(
#325000
1#
13
14
0(
1E
1B
09
0C
1/
10
02
1'
1&
0$
0D
#330000
0#
03
04
1(
#335000
1#
13
14
0(
0E
0@
0/
0'
0A
#340000
0#
03
04
1(
#345000
1#
13
14
0(
0B
1D
1C
17
00
0&
18
#350000
0#
03
04
1(
#355000
1#
13
14
0(
1E
19
0D
1@
1?
0:
1/
12
1'
1$
1A
0=
#360000
0#
03
04
1(
#365000
1#
13
14
0(
0E
1B
0>
1D
0@
0?
0<
07
0/
10
01
0'
1&
0%
1=
#370000
0#
03
04
1(
#375000
1#
13
14
0(
1E
1>
0D
0C
1<
1:
08
1/
11
1'
1%
1D
0A
#380000
0!
0"
0#
06
05
03
04
1(
1;
#385000
1#
13
14
0(
0B
09
0D
0:
00
02
0&
0$
0=
#390000
0#
03
04
1(
#395000
1#
13
14
0(
0E
0>
1D
1@
17
0/
01
0'
0%
1A
18
#400000
0#
03
04
1(
#405000
1#
13
14
0(
1E
1B
19
1C
0@
1:
1/
10
12
1'
1&
1$
0D
0A
1=
#410000
0#
03
04
1(
#415000
1#
13
14
0(
0E
0B
1>
1D
1@
07
0/
00
11
0'
0&
1%
1A
08
#420000
0#
03
04
1(
#425000
1#
13
14
0(
1E
1B
09
0C
1/
10
02
1'
1&
0$
0D
#430000
0#
03
04
1(
#435000
1#
13
14
0(
0E
0@
0/
0'
0A
#440000
0#
03
04
1(
#445000
1#
13
14
0(
0B
1D
1C
17
00
0&
18
#450000
0#
03
04
1(
#455000
1#
13
14
0(
1E
19
0D
0C
1@
0:
1/
12
1'
1$
1A
0=
#460000
0#
03
04
1(
#465000
1#
13
14
0(
0E
1B
0>
1C
0@
07
0/
10
01
0'
1&
0%
1D
0A
08
#470000
0#
03
04
1(
#475000
1"
1#
15
13
14
0(
1E
0B
09
17
0;
1/
00
02
1'
0&
0$
18
#480000
0#
03
04
1(
#485000
1#
13
14
0(
19
0D
1@
1;
07
12
1$
1A
08
#490000
0#
03
04
1(
#495000
1#
13
14
0(
0E
1B
09
0@
17
0;
0/
10
02
0'
1&
0$
0A
18
0<
1A
1=
#500000
0#
03
04
1(
#505000
1#
13
14
0(
1>
19
0C
1<
1:
1D
1;
11
12
1%
1$
0D
0A
#510000
0#
03
04
1(
#515000
1#
13
14
0(
0B
1C
1@
07
00
0&
1D
1A
08
#520000
0#
03
04
1(
#525000
1#
13
14
0(
1E
1B
09
0C
0;
1/
10
02
1'
1&
0$
0D
#530000
0#
03
04
1(
#535000
1#
13
14
0(
0E
0@
0/
0'
0A
#540000
0#
03
04
1(
#545000
1#
13
14
0(
0B
1D
1C
17
00
0&
18
#550000
0#
03
04
1(
#555000
1#
13
14
0(
1E
19
0D
1@
1?
0:
1;
1/
12
1'
1$
1A
0=
#560000
0#
03
04
1(
#565000
1#
13
14
0(
0E
1B
0>
1D
0@
0?
07
0/
10
01
0'
1&
0%
0A
08
#570000
1!
0"
0#
16
05
03
04
1(
0;
18
0<
1A
1=
#575000
1#
13
14
0(
1E
1>
0D
0C
1<
1:
08
1/
11
1'
1%
1D
0A
#580000
0#
03
04
1(
#585000
1#
13
14
0(
0B
09
0D
0:
1;
00
02
0&
0$
0=
#590000
0#
03
04
1(
#595000
1#
13
14
0(
0E
0>
1D
1@
17
0/
01
0'
0%
1A
18
#600000
0#
03
04
1(
#605000
1#
13
14
0(
1E
1B
19
1C
0@
1:
0;
1/
10
12
1'
1&
1$
0D
0A
1=
#610000
0#
03
04
1(
#615000
1#
13
14
0(
0E
0B
1>
1D
1@
07
0/
00
11
0'
0&
1%
1A
08
#620000
0#
03
04
1(
#625000
1#
13
14
0(
1E
1B
09
0C
1;
1/
10
02
1'
1&
0$
0D
#630000
0#
03
04
1(
#635000
1#
13
14
0(
0E
0@
0/
0'
0A
#640000
0#
03
04
1(
#645000
1#
13
14
0(
0B
1D
1C
17
00
0&
18
#650000
0#
03
04
1(
#655000
1#
13
14
0(
1E
19
0D
0C
1@
0:
0;
1/
12
1'
1$
1A
0=
#660000
0#
03
04
1(
#665000
1"
1#
15
13
14
0(
1C
1?
0E
1B
0>
1D
0@
0?
0<
07
0/
10
01
0'
1&
0%
1=
#670000
0#
03
04
1(
#675000
1#
13
14
0(
1E
1>
0D
0C
1<
1:
08
1/
11
1'
1%
1D
0A
#680000
0#
03
04
1(
#685000
1#
13
14
0(
0B
09
0D
1C
1?
0:
00
02
0&
0$
1D
1A
0=
#690000
0#
03
04
1(
#695000
1#
13
14
0(
1B
0>
1@
0?
18
17
10
01
1&
0%
#700000
0#
03
04
1(
#705000
1#
13
14
0(
19
0D
0@
1:
12
1$
0A
1=
#710000
0#
03
04
1(
#715000
1#
13
14
0(
0E
0B
1>
1D
1@
07
0/
00
11
0'
0&
1%
1A
08
#720000
0#
03
04
1(
#725000
1#
13
14
0(
1E
1B
09
0C
1/
10
02
1'
1&
0$
0D
#730000
0#
03
04
1(
#735000
1#
13
14
0(
0E
0@
0/
0'
0A
#740000
0#
03
04
1(
#745000
1#
13
14
0(
0B
1D
1C
17
00
0&
18
#750000
0#
03
04
1(
#755000
1#
13
14
0(
1E
19
0D
1@
1?
0:
1/
12
1'
1$
1A
0=
#760000
0!
0"
0#
06
05
03
04
1(
1;
0C
0?
#765000
1#
13
14
0(
0E
1B
0>
1C
0@
07
0/
10
01
0'
1&
0%
1D
0A
08
#770000
0#
03
04
1(
#775000
1#
13
14
0(
1E
0B
09
17
1/
00
02
1'
0&
0$
18
#780000
0#
03
04
1(
#785000
1#
13
14
0(
19
0D
1@
07
12
1$
1A
08
#790000
0#
03
04
1(
#795000
1#
13
14
0(
0E
1B
09
0@
17
0/
10
02
0'
1&
0$
0A
18
#800000
0#
03
04
1(
#805000
1#
13
14
0(
0B
19
1D
0C
1:
00
12
0&
1$
0D
1=
#810000
0#
03
04
1(
#815000
1#
13
14
0(
1>
1C
1@
07
11
1%
1D
1A
08
#820000
0#
03
04
1(
#825000
1#
13
14
0(
1E
1B
09
0C
1/
10
02
1'
1&
0$
0D
#830000
0#
03
04
1(
#835000
1#
13
14
0(
0E
0@
0/
0'
0A
#840000
0#
03
04
1(
#845000
1#
13
14
0(
0B
1D
1C
17
00
0&
18
#850000
0#
03
04
1(
#855000
1"
1#
15
13
14
0(
0;
1E
19
0D
1@
1?
0:
1;
1/
12
1'
1$
1A
0=
#860000
0#
03
04
1(
#865000
1#
13
14
0(
0E
1B
0>
1D
0@
0?
07
0/
10
01
0'
1&
0%
0A
08
#870000
0#
03
04
1(
#875000
1#
13
14
0(
1E
0B
09
17
0;
1/
00
02
1'
0&
0$
18
#880000
0#
03
04
1(
#885000
1#
13
14
0(
19
0D
1@
1;
07
12
1$
1A
08
#890000
0#
03
04
1(
#895000
1#
13
14
0(
0E
1B
09
0@
17
0;
0/
10
02
0'
1&
0$
0A
18
0<
1A
1=
#900000
0#
03
04
1(
#905000
1#
13
14
0(
1>
19
0C
1<
1:
1D
1;
11
12
1%
1$
0D
0A
#910000
0#
03
04
1(
#915000
1#
13
14
0(
0B
1C
1@
07
00
0&
1D
1A
08
#920000
0#
03
04
1(
#925000
1#
13
14
0(
1E
1B
09
0C
0;
1/
10
02
1'
1&
0$
0D
#930000
0#
03
04
1(
#935000
1#
13
14
0(
0E
0@
0/
0'
0A
#940000
0#
03
04
1(
#945000
1#
13
14
0(
0B
1D
1C
17
00
0&
18
#950000
1!
0"
0#
16
05
03
04
1(
1;
#955000
1#
13
14
0(
1E
19
0D
0C
1@
0:
0;
1/
12
1'
1$
1A
0=
#960000
0#
03
04
1(
#965000
1#
13
14
0(
0E
1B
0>
1C
0@
0<
07
0/
10
01
0'
1&
0%
1D
1=
#970000
0#
03
04
1(
#975000
1#
13
14
0(
1E
1>
0D
0C
1<
1:
08
1/
11
1'
1%
1D
0A
#980000
0#
03
04
1(
#985000
1#
13
14
0(
0B
09
0D
0:
1;
00
02
0&
0$
0=
#990000
0#
03
04
1(
#995000
1#
13
14
0(
0E
0>
1D
1@
17
0/
01
0'
0%
1A
18
