3 семестр/Архитектура вычислительных машин и систем/Prac6/simulation/qsim/Prac6.msim.vcd
$comment
	File created using the following command:
		vcd file Prac6.msim.vcd -direction
$end
$date
	Sun Oct 20 14:20:54 2024
$end
$version
	ModelSim Version 10.1d
$end
$timescale
	1ps
$end
$scope module Prac6_vlg_vec_tst $end
$var reg 1 ! a $end
$var reg 1 " b $end
$var reg 1 # clock $end
$var wire 1 $ q [3] $end
$var wire 1 % q [2] $end
$var wire 1 & q [1] $end
$var wire 1 ' q [0] $end
$var wire 1 ( sampler $end
$scope module i1 $end
$var wire 1 ) gnd $end
$var wire 1 * vcc $end
$var wire 1 + unknown $end
$var tri1 1 , devclrn $end
$var tri1 1 - devpor $end
$var tri1 1 . devoe $end
$var wire 1 / clock~combout $end
$var wire 1 0 a~combout $end
$var wire 1 1 inst24~7_combout $end
$var wire 1 2 inst24~6_combout $end
$var wire 1 3 b~combout $end
$var wire 1 4 inst24~4_combout $end
$var wire 1 5 inst24~3_combout $end
$var wire 1 6 inst24~8_combout $end
$var wire 1 7 inst28~regout $end
$var wire 1 8 inst36~4_combout $end
$var wire 1 9 inst29~regout $end
$var wire 1 : inst23~7_combout $end
$var wire 1 ; inst23~6_combout $end
$var wire 1 < inst23~4_combout $end
$var wire 1 = inst23~3_combout $end
$var wire 1 > inst23~8_combout $end
$var wire 1 ? inst27~regout $end
$var wire 1 @ inst22~4_combout $end
$var wire 1 A inst26~regout $end
$upscope $end
$upscope $end
$enddefinitions $end
#0
$dumpvars
0!
0"
0#
0'
0&
0%
0$
x(
0)
1*
x+
1,
1-
1.
0/
00
11
12
03
14
15
16
07
08
09
0:
0;
0<
0=
0>
0?
1@
0A
$end
#5000
1#
1/
0(
1A
19
17
1=
1<
1;
1:
05
04
02
01
1$
1'
1&
1>
06
#10000
0#
0/
1(
#15000
1#
1/
0(
1?
09
07
18
15
14
12
11
1%
0'
0&
16
#20000
0#
0/
1(
#25000
1#
1/
0(
0A
19
17
08
0@
0$
1'
1&
#30000
0#
0/
1(
#35000
1#
1/
0(
09
1@
18
05
04
02
01
0'
06
#40000
0#
0/
1(
#45000
1#
1/
0(
07
0&
#50000
0#
0/
1(
#55000
1#
1/
0(
1A
19
0=
0<
0;
0:
08
15
14
12
11
0@
1$
1'
0>
16
#60000
0#
0/
1(
#65000
1#
1/
0(
0?
09
17
1;
1:
18
05
04
0%
0'
1&
06
#70000
0#
0/
1(
#75000
1#
1/
0(
0A
19
07
0;
0:
02
01
0$
1'
0&
#80000
0#
0/
1(
#85000
1#
1/
0(
1A
08
15
14
12
11
1$
16
#90000
0#
0/
1(
#95000
1"
1#
13
1/
0(
0A
09
17
1<
1:
05
02
0$
0'
1&
1>
#100000
0#
0/
1(
#105000
1#
1/
0(
1A
1?
1=
1;
18
04
01
1@
1$
1%
06
#110000
0#
0/
1(
#115000
1#
1/
0(
07
15
14
12
11
0&
16
#120000
0#
0/
1(
#125000
1#
1/
0(
0A
19
17
0@
0$
1'
1&
#130000
0#
0/
1(
#135000
1#
1/
0(
09
1@
05
04
02
01
0'
06
#140000
0#
0/
1(
#145000
1#
1/
0(
07
0&
#150000
0#
0/
1(
#155000
1#
1/
0(
1A
19
0=
0<
0;
0:
08
15
14
12
11
0@
1$
1'
0>
16
#160000
0#
0/
1(
#165000
1#
1/
0(
0?
09
17
1;
1:
18
05
04
0%
0'
1&
06
#170000
0#
0/
1(
#175000
1#
1/
0(
0A
19
07
0;
0:
02
01
0$
1'
0&
#180000
0#
0/
1(
#185000
1#
1/
0(
1A
08
15
14
12
11
1$
16
#190000
1!
0"
0#
10
03
0/
1(
06
#195000
1#
1/
0(
0A
09
17
1<
1:
05
02
1@
0$
0'
1&
#200000
0#
0/
1(
#205000
1#
1/
0(
1A
07
1=
1;
18
04
01
1$
0&
#210000
0#
0/
1(
#215000
1#
1/
0(
1?
15
14
12
11
1%
#220000
0#
0/
1(
#225000
1#
1/
0(
0A
19
17
08
0@
0$
1'
1&
#230000
0#
0/
1(
#235000
1#
1/
0(
09
1@
18
05
04
02
01
0'
#240000
0#
0/
1(
#245000
1#
1/
0(
07
0&
#250000
0#
0/
1(
#255000
1#
1/
0(
1A
19
0=
0<
0;
0:
08
15
14
12
11
0@
1$
1'
#260000
0#
0/
1(
#265000
1#
1/
0(
0?
09
17
1@
1;
1:
18
05
04
0%
0'
1&
#270000
0#
0/
1(
#275000
1#
1/
0(
1?
19
0@
1=
1<
08
02
01
1%
1'
#280000
0#
0/
1(
#285000
1"
1#
13
1/
0(
1>
16
0A
07
0=
0<
0;
0:
18
14
11
0$
0&
#290000
0#
0/
1(
#295000
1#
1/
0(
0?
17
1@
15
12
0%
1&
#300000
0#
0/
1(
#305000
1#
1/
0(
1A
1=
1<
1;
1:
08
05
04
02
01
1$
#310000
0#
0/
1(
#315000
1#
1/
0(
1?
09
07
18
15
14
12
11
1%
0'
0&
#320000
0#
0/
1(
#325000
1#
1/
0(
0A
19
17
0@
0$
1'
1&
#330000
0#
0/
1(
#335000
1#
1/
0(
09
1@
05
04
02
01
0'
#340000
0#
0/
1(
#345000
1#
1/
0(
07
0&
#350000
0#
0/
1(
#355000
1#
1/
0(
1A
19
0=
0<
0;
0:
08
15
14
12
11
0@
1$
1'
#360000
0#
0/
1(
#365000
1#
1/
0(
0?
09
17
1@
1;
1:
18
05
04
0%
0'
1&
#370000
0#
0/
1(
#375000
1#
1/
0(
1?
19
0@
1=
1<
08
02
01
1%
1'
#380000
0!
0"
0#
00
03
0/
1(
06
#385000
1#
1/
0(
0A
07
0=
0<
0;
0:
14
11
0$
0&
0>
#390000
0#
0/
1(
#395000
1#
1/
0(
0?
09
1@
15
12
0%
0'
16
#400000
0#
0/
1(
#405000
1#
1/
0(
1A
19
17
1=
1<
1;
1:
05
04
02
01
1$
1'
1&
1>
06
#410000
0#
0/
1(
#415000
1#
1/
0(
1?
09
07
18
15
14
12
11
1%
0'
0&
16
#420000
0#
0/
1(
#425000
1#
1/
0(
0A
19
17
08
0@
0$
1'
1&
#430000
0#
0/
1(
#435000
1#
1/
0(
09
1@
18
05
04
02
01
0'
06
#440000
0#
0/
1(
#445000
1#
1/
0(
07
0&
#450000
0#
0/
1(
#455000
1#
1/
0(
1A
19
0=
0<
0;
0:
08
15
14
12
11
0@
1$
1'
0>
16
#460000
0#
0/
1(
#465000
1#
1/
0(
0?
09
17
1;
1:
18
05
04
0%
0'
1&
06
#470000
0#
0/
1(
#475000
1"
1#
13
1/
0(
0A
19
07
0;
0:
02
01
0$
1'
0&
#480000
0#
0/
1(
#485000
1#
1/
0(
1A
08
15
14
12
11
1$
16
#490000
0#
0/
1(
#495000
1#
1/
0(
0A
09
17
1<
1:
05
02
0$
0'
1&
1>
#500000
0#
0/
1(
#505000
1#
1/
0(
1A
1?
1=
1;
18
04
01
1@
1$
1%
06
#510000
0#
0/
1(
#515000
1#
1/
0(
07
15
14
12
11
0&
16
#520000
0#
0/
1(
#525000
1#
1/
0(
0A
19
17
0@
0$
1'
1&
#530000
0#
0/
1(
#535000
1#
1/
0(
09
1@
05
04
02
01
0'
06
#540000
0#
0/
1(
#545000
1#
1/
0(
07
0&
#550000
0#
0/
1(
#555000
1#
1/
0(
1A
19
0=
0<
0;
0:
08
15
14
12
11
0@
1$
1'
0>
16
#560000
0#
0/
1(
#565000
1#
1/
0(
0?
09
17
1;
1:
18
05
04
0%
0'
1&
06
#570000
1!
0"
0#
10
03
0/
1(
1@
#575000
1#
1/
0(
1?
19
0@
1=
1<
08
02
01
1%
1'
#580000
0#
0/
1(
#585000
1#
1/
0(
0A
07
0=
0<
0;
0:
14
11
0$
0&
#590000
0#
0/
1(
#595000
1#
1/
0(
0?
09
1@
15
12
0%
0'
#600000
0#
0/
1(
#605000
1#
1/
0(
1A
19
17
1=
1<
1;
1:
05
04
02
01
1$
1'
1&
#610000
0#
0/
1(
#615000
1#
1/
0(
1?
09
07
18
15
14
12
11
1%
0'
0&
#620000
0#
0/
1(
#625000
1#
1/
0(
0A
19
17
08
0@
0$
1'
1&
#630000
0#
0/
1(
#635000
1#
1/
0(
09
1@
18
05
04
02
01
0'
#640000
0#
0/
1(
#645000
1#
1/
0(
07
0&
#650000
0#
0/
1(
#655000
1#
1/
0(
1A
19
0=
0<
0;
0:
08
15
14
12
11
0@
1$
1'
#660000
0#
0/
1(
#665000
1"
1#
13
1/
0(
1>
16
0?
09
17
1@
1;
1:
18
05
04
0%
0'
1&
#670000
0#
0/
1(
#675000
1#
1/
0(
1?
19
0@
1=
1<
08
02
01
1%
1'
#680000
0#
0/
1(
#685000
1#
1/
0(
0A
07
0=
0<
0;
0:
18
14
11
0$
0&
#690000
0#
0/
1(
#695000
1#
1/
0(
0?
17
1@
15
12
0%
1&
#700000
0#
0/
1(
#705000
1#
1/
0(
1A
1=
1<
1;
1:
08
05
04
02
01
1$
#710000
0#
0/
1(
#715000
1#
1/
0(
1?
09
07
18
15
14
12
11
1%
0'
0&
#720000
0#
0/
1(
#725000
1#
1/
0(
0A
19
17
0@
0$
1'
1&
#730000
0#
0/
1(
#735000
1#
1/
0(
09
1@
05
04
02
01
0'
#740000
0#
0/
1(
#745000
1#
1/
0(
07
0&
#750000
0#
0/
1(
#755000
1#
1/
0(
1A
19
0=
0<
0;
0:
08
15
14
12
11
0@
1$
1'
#760000
0!
0"
0#
00
03
0/
1(
0>
#765000
1#
1/
0(
0?
09
17
1;
1:
18
05
04
0%
0'
1&
06
#770000
0#
0/
1(
#775000
1#
1/
0(
0A
19
07
0;
0:
02
01
0$
1'
0&
#780000
0#
0/
1(
#785000
1#
1/
0(
1A
08
15
14
12
11
1$
16
#790000
0#
0/
1(
#795000
1#
1/
0(
0A
09
17
1<
1:
05
02
0$
0'
1&
06
#800000
0#
0/
1(
#805000
1#
1/
0(
1A
07
1=
1;
18
04
01
1@
1$
0&
1>
#810000
0#
0/
1(
#815000
1#
1/
0(
1?
15
14
12
11
1%
16
#820000
0#
0/
1(
#825000
1#
1/
0(
0A
19
17
08
0@
0$
1'
1&
#830000
0#
0/
1(
#835000
1#
1/
0(
09
1@
18
05
04
02
01
0'
06
#840000
0#
0/
1(
#845000
1#
1/
0(
07
0&
#850000
0#
0/
1(
#855000
1"
1#
13
1/
0(
1A
19
0=
0<
0;
0:
08
15
14
12
11
0@
1$
1'
0>
16
#860000
0#
0/
1(
#865000
1#
1/
0(
0?
09
17
1;
1:
18
05
04
0%
0'
1&
06
#870000
0#
0/
1(
#875000
1#
1/
0(
0A
19
07
0;
0:
02
01
0$
1'
0&
#880000
0#
0/
1(
#885000
1#
1/
0(
1A
08
15
14
12
11
1$
16
#890000
0#
0/
1(
#895000
1#
1/
0(
0A
09
17
1<
1:
05
02
0$
0'
1&
1>
#900000
0#
0/
1(
#905000
1#
1/
0(
1A
1?
1=
1;
18
04
01
1@
1$
1%
06
#910000
0#
0/
1(
#915000
1#
1/
0(
07
15
14
12
11
0&
16
#920000
0#
0/
1(
#925000
1#
1/
0(
0A
19
17
0@
0$
1'
1&
#930000
0#
0/
1(
#935000
1#
1/
0(
09
1@
05
04
02
01
0'
06
#940000
0#
0/
1(
#945000
1#
1/
0(
07
0&
#950000
1!
0"
0#
10
03
0/
1(
0>
#955000
1#
1/
0(
1A
19
0=
0<
0;
0:
08
15
14
12
11
0@
1$
1'
#960000
0#
0/
1(
#965000
1#
1/
0(
0?
09
17
1@
1;
1:
18
05
04
0%
0'
1&
#970000
0#
0/
1(
#975000
1#
1/
0(
1?
19
0@
1=
1<
08
02
01
1%
1'
#980000
0#
0/
1(
#985000
1#
1/
0(
0A
07
0=
0<
0;
0:
14
11
0$
0&
#990000
0#
0/
1(
#995000
1#
1/
0(
0?
09
1@
15
12
0%
0'
